{
  "project_info": {
    "project_number": "206330018772",
    "project_id": "green-root-2b35c",
    "storage_bucket": "green-root-2b35c.appspot.com"
  },
  "client": [
    {
      "client_info": {
        "mobilesdk_app_id": "1:206330018772:android:5b20f373b63a488dfef441",
        "android_client_info": {
          "package_name": "com.app.greenroot"
        }
      },
      "oauth_client": [
        {
          "client_id": "206330018772-pp7j4u91e7ac0jvajhsogkhddqc8fml8.apps.googleusercontent.com",
          "client_type": 3
        }
      ],
      "api_key": [
        {
          "current_key": "AIzaSyDyLiXfvr7JQ5jxQLNuIu_EO6FGC-xnGOw"
        }
      ],
      "services": {
        "appinvite_service": {
          "other_platform_oauth_client": [
            {
              "client_id": "206330018772-pp7j4u91e7ac0jvajhsogkhddqc8fml8.apps.googleusercontent.com",
              "client_type": 3
            }
          ]
        }
      }
    }
  ],
  "configuration_version": "1"
}